module github.com/elgatito/elementum

go 1.20

require (
	github.com/ElementumOrg/libtorrent-go v0.0.0-20230915150218-d8763f5e1783
	github.com/RoaringBitmap/roaring v1.7.0
	github.com/anacrolix/missinggo v1.3.0
	github.com/anacrolix/missinggo/perf v1.0.0
	github.com/anacrolix/sync v0.5.1
	github.com/anacrolix/tagflag v1.4.0
	github.com/asdine/storm v2.1.2+incompatible
	github.com/bogdanovich/dns_resolver v0.0.0-20170211073258-a8e42bc6a5b6
	github.com/cespare/xxhash v1.1.0
	github.com/dustin/go-humanize v1.0.1
	github.com/elazarl/goproxy v0.0.0-20231117061959-7cc037d33fb5
	github.com/fatih/color v1.16.0
	github.com/gin-gonic/gin v1.9.1
	github.com/hectane/go-acl v0.0.0-20230122075934-ca0b05cb1adb
	github.com/jmcvetta/napping v3.2.0+incompatible
	github.com/karrick/godirwalk v1.17.0
	github.com/klauspost/compress v1.17.4
	github.com/kolo/xmlrpc v0.0.0-20220921171641-a4b6fa1dd06b
	github.com/likexian/doh-go v0.6.4
	github.com/op/go-logging v0.0.0-20160315200505-970db520ece7
	github.com/pbnjay/memory v0.0.0-20210728143218-7b4eea64cf58
	github.com/radovskyb/watcher v1.0.7
	github.com/sanity-io/litter v1.5.5
	github.com/shirou/gopsutil v3.21.11+incompatible
	github.com/spf13/cast v1.6.0
	github.com/tinylib/msgp v1.1.9
	github.com/valyala/bytebufferpool v1.0.0
	github.com/vmihailenco/msgpack/v4 v4.3.13
	github.com/zeebo/bencode v1.0.0
	go.etcd.io/bbolt v1.3.8
	gopkg.in/natefinch/lumberjack.v2 v2.2.1
	gopkg.in/yaml.v3 v3.0.1
)

require (
	github.com/DataDog/zstd v1.5.5 // indirect
	github.com/Sereal/Sereal/Go/sereal v0.0.0-20231114115814-d5e73a7530dc // indirect
	github.com/StackExchange/wmi v1.2.1 // indirect
	github.com/anacrolix/envpprof v1.3.0 // indirect
	github.com/anacrolix/generics v0.0.0-20230911070922-5dd7545c6b13 // indirect
	github.com/anacrolix/log v0.14.5 // indirect
	github.com/anacrolix/missinggo/v2 v2.7.3 // indirect
	github.com/bits-and-blooms/bitset v1.12.0 // indirect
	github.com/bradfitz/iter v0.0.0-20191230175014-e8f45d346db8 // indirect
	github.com/bytedance/sonic v1.10.2 // indirect
	github.com/chenzhuoyu/base64x v0.0.0-20230717121745-296ad89f973d // indirect
	github.com/chenzhuoyu/iasm v0.9.1 // indirect
	github.com/gabriel-vasile/mimetype v1.4.3 // indirect
	github.com/gin-contrib/sse v0.1.0 // indirect
	github.com/go-ole/go-ole v1.3.0 // indirect
	github.com/go-playground/locales v0.14.1 // indirect
	github.com/go-playground/universal-translator v0.18.1 // indirect
	github.com/go-playground/validator/v10 v10.16.0 // indirect
	github.com/goccy/go-json v0.10.2 // indirect
	github.com/golang/protobuf v1.5.3 // indirect
	github.com/google/go-cmp v0.6.0 // indirect
	github.com/huandu/xstrings v1.4.0 // indirect
	github.com/jmcvetta/randutil v0.0.0-20150817122601-2bb1b664bcff // indirect
	github.com/json-iterator/go v1.1.12 // indirect
	github.com/klauspost/cpuid/v2 v2.2.6 // indirect
	github.com/leodido/go-urn v1.2.4 // indirect
	github.com/likexian/gokit v0.25.13 // indirect
	github.com/mattn/go-colorable v0.1.13 // indirect
	github.com/mattn/go-isatty v0.0.20 // indirect
	github.com/miekg/dns v1.1.57 // indirect
	github.com/modern-go/concurrent v0.0.0-20180306012644-bacd9c7ef1dd // indirect
	github.com/modern-go/reflect2 v1.0.2 // indirect
	github.com/mschoch/smat v0.2.0 // indirect
	github.com/pelletier/go-toml/v2 v2.1.1 // indirect
	github.com/philhofer/fwd v1.1.2 // indirect
	github.com/pkg/errors v0.9.1 // indirect
	github.com/twitchyliquid64/golang-asm v0.15.1 // indirect
	github.com/ugorji/go/codec v1.2.12 // indirect
	github.com/vmihailenco/msgpack v4.0.4+incompatible // indirect
	github.com/vmihailenco/tagparser v0.1.1 // indirect
	github.com/yusufpapurcu/wmi v1.2.3 // indirect
	golang.org/x/arch v0.6.0 // indirect
	golang.org/x/crypto v0.17.0 // indirect
	golang.org/x/exp v0.0.0-20231219180239-dc181d75b848 // indirect
	golang.org/x/mod v0.14.0 // indirect
	golang.org/x/net v0.19.0 // indirect
	golang.org/x/sys v0.16.0 // indirect
	golang.org/x/text v0.14.0 // indirect
	golang.org/x/tools v0.16.1 // indirect
	golang.org/x/xerrors v0.0.0-20231012003039-104605ab7028 // indirect
	google.golang.org/appengine v1.6.8 // indirect
	google.golang.org/protobuf v1.31.0 // indirect
)
